{
  "kind": "collectionType",
  "collectionName": "categories",
  "info": {
    "name": "Category",
    "description": ""
  },
  "options": {
    "increments": true,
    "timestamps": true,
    "draftAndPublish": true
  },
  "pluginOptions": {},
  "attributes": {
    "Name": {
      "type": "string"
    },
    "products": {
      "via": "categories",
      "collection": "product"
    }
  }
}
